Timelines • wateReview
…
Residual analysis

Recognizing an exponential growth, we perform a residual analysis by fitting an exponential curve to the general trend per cluster and evaluating the deviation from this general trend. We additionally flag if the residuals absolute values are greater than one-standard deviation of the residuals.

residual_year_cluster <- count_year_cluster %>%
  group_modify( ~ data.frame(
    year = .x$year,
    resid = lm(log(count + 1) ~ year, data = .x) %>% resid()
    ) %>%
  mutate(signif = resid > 0) %>%
  mutate(signif = ifelse(abs(resid) < sd(resid), NA, signif))
  )
residual_year_cluster
#> # A tibble: 115 x 4
#> # Groups:   cluster [3]
#>    cluster  year    resid signif
#>    <fct>   <dbl>    <dbl> <lgl> 
#>  1 1        1980 -0.315   NA    
#>  2 1        1981 -0.465   FALSE 
#>  3 1        1982 -0.327   FALSE 
#>  4 1        1983 -0.764   FALSE 
#>  5 1        1984 -0.221   NA    
#>  6 1        1985  0.140   NA    
#>  7 1        1986 -0.00971 NA    
#>  8 1        1987 -0.0642  NA    
#>  9 1        1988  0.221   NA    
#> 10 1        1989  0.283   NA    
#> # … with 105 more rows
…
